<svg width="28" height="28" viewBox="0 0 28 28" fill="none" xmlns="http://www.w3.org/2000/svg">
<path d="M24.5003 2.33325H3.50033C2.21699 2.33325 1.16699 3.38325 1.16699 4.66659V18.6666C1.16699 19.9499 2.21699 20.9999 3.50033 20.9999H11.667V23.3333H10.5003C9.85866 23.3333 9.33366 23.8583 9.33366 24.4999C9.33366 25.1416 9.85866 25.6666 10.5003 25.6666H17.5003C18.142 25.6666 18.667 25.1416 18.667 24.4999C18.667 23.8583 18.142 23.3333 17.5003 23.3333H16.3337V20.9999H24.5003C25.7837 20.9999 26.8337 19.9499 26.8337 18.6666V4.66659C26.8337 3.38325 25.7837 2.33325 24.5003 2.33325ZM23.3337 18.6666H4.66699C4.02533 18.6666 3.50033 18.1416 3.50033 17.4999V5.83325C3.50033 5.19159 4.02533 4.66659 4.66699 4.66659H23.3337C23.9753 4.66659 24.5003 5.19159 24.5003 5.83325V17.4999C24.5003 18.1416 23.9753 18.6666 23.3337 18.6666Z" fill="#404258"/>
</svg>
